jsonFlickrApi({"photos":{"page":1, "pages":4, "perpage":50, "total":"200", "photo":[{"id":"3497119418", "owner":"40517523@N00", "secret":"94e61e1619", "server":"3300", "farm":4, "title":"Sunrise, Kumlub\u00fck", "ispublic":1, "isfriend":0, "isfamily":0}, {"id":"3496304637", "owner":"40517523@N00", "secret":"a22991fdba", "server":"3318", "farm":4, "title":"Pool, Dionysos", "ispublic":1, "isfriend":0, "isfamily":0}, {"id":"3497118674", "owner":"40517523@N00", "secret":"9cb1cdcc6c", "server":"3394", "farm":4, "title":"Infinity Pool (And Beyond!)", "ispublic":1, "isfriend":0, "isfamily":0}, {"id":"3497118426", "owner":"40517523@N00", "secret":"e64a154a67", "server":"3657", "farm":4, "title":"Amos Village", "ispublic":1, "isfriend":0, "isfamily":0}, {"id":"3497117904", "owner":"40517523@N00", "secret":"4997c6ee9a", "server":"3304", "farm":4, "title":"Butterfly", "ispublic":1, "isfriend":0, "isfamily":0}, {"id":"3496292545", "owner":"40517523@N00", "secret":"82103705de", "server":"3412", "farm":4, "title":"Infinity Pool - Sunset", "ispublic":1, "isfriend":0, "isfamily":0}, {"id":"3497107020", "owner":"40517523@N00", "secret":"968d15015d", "server":"3371", "farm":4, "title":"Pool & Valley Below", "ispublic":1, "isfriend":0, "isfamily":0}, {"id":"3497106638", "owner":"40517523@N00", "secret":"929f01be8c", "server":"3627", "farm":4, "title":"Kumlub\u00fck", "ispublic":1, "isfriend":0, "isfamily":0}, {"id":"3497106284", "owner":"40517523@N00", "secret":"da5ddaa47f", "server":"3392", "farm":4, "title":"Rock", "ispublic":1, "isfriend":0, "isfamily":0}, {"id":"3497098152", "owner":"40517523@N00", "secret":"77318a2b0d", "server":"3631", "farm":4, "title":"Stoke Newington Cemetery", "ispublic":1, "isfriend":0, "isfamily":0}, {"id":"3496283199", "owner":"40517523@N00", "secret":"1176be1957", "server":"3192", "farm":4, "title":"Stoke Newington Cemetery", "ispublic":1, "isfriend":0, "isfamily":0}, {"id":"3497097302", "owner":"40517523@N00", "secret":"74a02d4b9b", "server":"3629", "farm":4, "title":"Deer", "ispublic":1, "isfriend":0, "isfamily":0}, {"id":"3496282255", "owner":"40517523@N00", "secret":"6c8ca11964", "server":"3611", "farm":4, "title":"Rusty Scooter", "ispublic":1, "isfriend":0, "isfamily":0}, {"id":"3441669104", "owner":"40517523@N00", "secret":"6046ea569f", "server":"3642", "farm":4, "title":"will-oldham", "ispublic":1, "isfriend":0, "isfamily":0}, {"id":"3441669062", "owner":"40517523@N00", "secret":"062566941b", "server":"3372", "farm":4, "title":"credit-to-the-nation", "ispublic":1, "isfriend":0, "isfamily":0}, {"id":"3411238369", "owner":"40517523@N00", "secret":"f177044f45", "server":"3542", "farm":4, "title":"Walking On Water", "ispublic":1, "isfriend":0, "isfamily":0}, {"id":"3412026868", "owner":"40517523@N00", "secret":"71ec147558", "server":"3567", "farm":4, "title":"Wallace's Dining Room", "ispublic":1, "isfriend":0, "isfamily":0}, {"id":"3412026466", "owner":"40517523@N00", "secret":"338d018a65", "server":"3648", "farm":4, "title":"Italian Restaraunt", "ispublic":1, "isfriend":0, "isfamily":0}, {"id":"3411218259", "owner":"40517523@N00", "secret":"2d61253464", "server":"3390", "farm":4, "title":"Wallace & Gromit in the kitchen", "ispublic":1, "isfriend":0, "isfamily":0}, {"id":"3412025510", "owner":"40517523@N00", "secret":"9860ac9e5a", "server":"3401", "farm":4, "title":"Aardman Set", "ispublic":1, "isfriend":0, "isfamily":0}, {"id":"3411217389", "owner":"40517523@N00", "secret":"d5a00805d1", "server":"3324", "farm":4, "title":"Kitchen, full Wallace model", "ispublic":1, "isfriend":0, "isfamily":0}, {"id":"3282612570", "owner":"40517523@N00", "secret":"7539f2eb68", "server":"3555", "farm":4, "title":"006_iphone_wallpaper_supermandolini", "ispublic":1, "isfriend":0, "isfamily":0}, {"id":"3282612412", "owner":"40517523@N00", "secret":"de8b1ee223", "server":"3344", "farm":4, "title":"005_iphone_wallpaper_supermandolini", "ispublic":1, "isfriend":0, "isfamily":0}, {"id":"3282612266", "owner":"40517523@N00", "secret":"121ef0d376", "server":"3344", "farm":4, "title":"004_iphone_wallpaper_joy_division", "ispublic":1, "isfriend":0, "isfamily":0}, {"id":"3281790503", "owner":"40517523@N00", "secret":"4308c60156", "server":"3590", "farm":4, "title":"003_iphone_wallpaper_benice", "ispublic":1, "isfriend":0, "isfamily":0}, {"id":"3281790363", "owner":"40517523@N00", "secret":"0f785fa3a8", "server":"3451", "farm":4, "title":"003_iphone_wallpaper_saville", "ispublic":1, "isfriend":0, "isfamily":0}, {"id":"3282611736", "owner":"40517523@N00", "secret":"f89194bca9", "server":"3498", "farm":4, "title":"002_iphone_wallpaper_saville", "ispublic":1, "isfriend":0, "isfamily":0}, {"id":"3281753353", "owner":"40517523@N00", "secret":"bf846067d3", "server":"3649", "farm":4, "title":"001_iphone_wallpaper_saville", "ispublic":1, "isfriend":0, "isfamily":0}, {"id":"3183765483", "owner":"40517523@N00", "secret":"995760d8d4", "server":"3527", "farm":4, "title":"Fremont Bridge", "ispublic":1, "isfriend":0, "isfamily":0}, {"id":"3184603208", "owner":"40517523@N00", "secret":"bfa0e41ef4", "server":"3493", "farm":4, "title":"Fremont Graffiti", "ispublic":1, "isfriend":0, "isfamily":0}, {"id":"3184602284", "owner":"40517523@N00", "secret":"9db1a2cee7", "server":"3488", "farm":4, "title":"View of Downton over Lake Union", "ispublic":1, "isfriend":0, "isfamily":0}, {"id":"3183762817", "owner":"40517523@N00", "secret":"608dac1b95", "server":"3307", "farm":4, "title":"Cheeky Getty!", "ispublic":1, "isfriend":0, "isfamily":0}, {"id":"3183762117", "owner":"40517523@N00", "secret":"af97b71b5e", "server":"3123", "farm":4, "title":"The Fremont Troll", "ispublic":1, "isfriend":0, "isfamily":0}, {"id":"3184599552", "owner":"40517523@N00", "secret":"0e8ac9c282", "server":"3079", "farm":4, "title":"Seattle Library", "ispublic":1, "isfriend":0, "isfamily":0}, {"id":"3183760393", "owner":"40517523@N00", "secret":"b4cb3e3e27", "server":"3113", "farm":4, "title":"Seattle Library", "ispublic":1, "isfriend":0, "isfamily":0}, {"id":"3183759301", "owner":"40517523@N00", "secret":"61970c8c4e", "server":"3308", "farm":4, "title":"Sunset", "ispublic":1, "isfriend":0, "isfamily":0}, {"id":"3183758603", "owner":"40517523@N00", "secret":"96c308c5f6", "server":"3414", "farm":4, "title":"IMG_2535", "ispublic":1, "isfriend":0, "isfamily":0}, {"id":"3184595708", "owner":"40517523@N00", "secret":"b775df1f06", "server":"3390", "farm":4, "title":"Cranes", "ispublic":1, "isfriend":0, "isfamily":0}, {"id":"3184594856", "owner":"40517523@N00", "secret":"66e84469e5", "server":"3443", "farm":4, "title":"Tanker on Puget Sound", "ispublic":1, "isfriend":0, "isfamily":0}, {"id":"3183755617", "owner":"40517523@N00", "secret":"670ae7d131", "server":"3358", "farm":4, "title":"IMG_2505", "ispublic":1, "isfriend":0, "isfamily":0}, {"id":"3184593142", "owner":"40517523@N00", "secret":"7642a6db2f", "server":"3310", "farm":4, "title":"Downtown Skyline", "ispublic":1, "isfriend":0, "isfamily":0}, {"id":"3184592266", "owner":"40517523@N00", "secret":"3e0c476577", "server":"3403", "farm":4, "title":"IMG_2484", "ispublic":1, "isfriend":0, "isfamily":0}, {"id":"3184591276", "owner":"40517523@N00", "secret":"5b450184dd", "server":"3399", "farm":4, "title":"IMG_2473", "ispublic":1, "isfriend":0, "isfamily":0}, {"id":"3183752319", "owner":"40517523@N00", "secret":"7c3fb5dcaf", "server":"3398", "farm":4, "title":"Seattle Scuplture Park", "ispublic":1, "isfriend":0, "isfamily":0}, {"id":"3183751665", "owner":"40517523@N00", "secret":"22e6a99929", "server":"3318", "farm":4, "title":"IMG_2443", "ispublic":1, "isfriend":0, "isfamily":0}, {"id":"3183740007", "owner":"40517523@N00", "secret":"6d25aaa13c", "server":"3477", "farm":4, "title":"IMG_2433", "ispublic":1, "isfriend":0, "isfamily":0}, {"id":"3184577172", "owner":"40517523@N00", "secret":"632b8e6f5e", "server":"3511", "farm":4, "title":"Maceys", "ispublic":1, "isfriend":0, "isfamily":0}, {"id":"3184576430", "owner":"40517523@N00", "secret":"32233c83c1", "server":"3345", "farm":4, "title":"IMG_2426", "ispublic":1, "isfriend":0, "isfamily":0}, {"id":"3183736743", "owner":"40517523@N00", "secret":"70ca0c68b8", "server":"3263", "farm":4, "title":"The Sinking Car Park", "ispublic":1, "isfriend":0, "isfamily":0}, {"id":"3183735737", "owner":"40517523@N00", "secret":"9a3006f4dd", "server":"3346", "farm":4, "title":"Old Sidewalk Grates", "ispublic":1, "isfriend":0, "isfamily":0}]}, "stat":"ok"})